{
	"process_id" : 11096,
	"version" : "2020.3.4f1",
	"app_path" : "C:/Program Files/Unity/Hub/Editor/2020.3.4f1/Editor/Unity.exe",
	"app_contents_path" : "C:/Program Files/Unity/Hub/Editor/2020.3.4f1/Editor/Data"
}